-8.44e-008	0
-8.42e-008	0
-8.4e-008	0
-8.38e-008	0
-8.36e-008	0
-8.34e-008	0
-8.32e-008	0
-8.3e-008	0
-8.28e-008	0
-8.26e-008	0
-8.24e-008	0
-8.22e-008	0
-8.2e-008	0
-8.18e-008	0
-8.16e-008	0
-8.14e-008	0
-8.12e-008	0
-8.1e-008	0
-8.08e-008	0
-8.06e-008	0
-8.04e-008	0
-8.02e-008	0
-8e-008	0
-7.98e-008	0
-7.96e-008	0
-7.94e-008	0
-7.92e-008	0
-7.9e-008	0
-7.88e-008	0
-7.86e-008	0
-7.84e-008	0
-7.82e-008	0
-7.8e-008	0
-7.78e-008	0
-7.76e-008	1
-7.74e-008	0
-7.72e-008	1
-7.7e-008	0
-7.68e-008	0
-7.66e-008	0
-7.64e-008	1
-7.62e-008	0
-7.6e-008	1
-7.58e-008	0
-7.56e-008	0
-7.54e-008	0
-7.52e-008	1
-7.5e-008	0
-7.48e-008	0
-7.46e-008	2
-7.44e-008	1
-7.42e-008	0
-7.4e-008	0
-7.38e-008	1
-7.36e-008	4
-7.34e-008	1
-7.32e-008	0
-7.3e-008	1
-7.28e-008	3
-7.26e-008	0
-7.24e-008	2
-7.22e-008	3
-7.2e-008	6
-7.18e-008	2
-7.16e-008	0
-7.14e-008	1
-7.12e-008	1
-7.1e-008	3
-7.08e-008	8
-7.06e-008	2
-7.04e-008	5
-7.02e-008	4
-7e-008	4
-6.98e-008	2
-6.96e-008	8
-6.94e-008	5
-6.92e-008	6
-6.9e-008	3
-6.88e-008	6
-6.86e-008	9
-6.84e-008	10
-6.82e-008	8
-6.8e-008	6
-6.78e-008	3
-6.76e-008	3
-6.74e-008	8
-6.72e-008	7
-6.7e-008	10
-6.68e-008	17
-6.66e-008	22
-6.64e-008	6
-6.62e-008	12
-6.6e-008	5
-6.58e-008	9
-6.56e-008	9
-6.54e-008	15
-6.52e-008	5
-6.5e-008	12
-6.48e-008	8
-6.46e-008	11
-6.44e-008	18
-6.42e-008	13
-6.4e-008	13
-6.38e-008	13
-6.36e-008	10
-6.34e-008	9
-6.32e-008	7
-6.3e-008	6
-6.28e-008	6
-6.26e-008	4
-6.24e-008	4
-6.22e-008	4
-6.2e-008	4
-6.18e-008	7
-6.16e-008	7
-6.14e-008	11
-6.12e-008	8
-6.1e-008	4
-6.08e-008	5
-6.06e-008	7
-6.04e-008	7
-6.02e-008	3
-6e-008	4
-5.98e-008	3
-5.96e-008	3
-5.94e-008	3
-5.92e-008	1
-5.9e-008	6
-5.88e-008	7
-5.86e-008	3
-5.84e-008	1
-5.82e-008	5
-5.8e-008	2
-5.78e-008	3
-5.76e-008	4
-5.74e-008	3
-5.72e-008	7
-5.7e-008	2
-5.68e-008	2
-5.66e-008	5
-5.64e-008	2
-5.62e-008	3
-5.6e-008	2
-5.58e-008	4
-5.56e-008	2
-5.54e-008	4
-5.52e-008	8
-5.5e-008	5
-5.48e-008	4
-5.46e-008	5
-5.44e-008	8
-5.42e-008	3
-5.4e-008	7
-5.38e-008	3
-5.36e-008	6
-5.34e-008	2
-5.32e-008	7
-5.3e-008	7
-5.28e-008	15
-5.26e-008	7
-5.24e-008	10
-5.22e-008	5
-5.2e-008	10
-5.18e-008	13
-5.16e-008	8
-5.14e-008	5
-5.12e-008	11
-5.1e-008	8
-5.08e-008	9
-5.06e-008	8
-5.04e-008	9
-5.02e-008	8
-5e-008	8
-4.98e-008	9
-4.96e-008	10
-4.94e-008	9
-4.92e-008	3
-4.9e-008	7
-4.88e-008	6
-4.86e-008	3
-4.84e-008	6
-4.82e-008	8
-4.8e-008	6
-4.78e-008	5
-4.76e-008	3
-4.74e-008	5
-4.72e-008	6
-4.7e-008	5
-4.68e-008	7
-4.66e-008	4
-4.64e-008	6
-4.62e-008	3
-4.6e-008	8
-4.58e-008	1
-4.56e-008	4
-4.54e-008	3
-4.52e-008	2
-4.5e-008	3
-4.48e-008	5
-4.46e-008	5
-4.44e-008	1
-4.42e-008	8
-4.4e-008	2
-4.38e-008	2
-4.36e-008	1
-4.34e-008	2
-4.32e-008	3
-4.3e-008	6
-4.28e-008	2
-4.26e-008	5
-4.24e-008	3
-4.22e-008	5
-4.2e-008	4
-4.18e-008	2
-4.16e-008	3
-4.14e-008	4
-4.12e-008	1
-4.1e-008	6
-4.08e-008	2
-4.06e-008	4
-4.04e-008	2
-4.02e-008	4
-4e-008	3
-3.98e-008	2
-3.96e-008	6
-3.94e-008	1
-3.92e-008	5
-3.9e-008	2
-3.88e-008	2
-3.86e-008	3
-3.84e-008	5
-3.82e-008	2
-3.8e-008	1
-3.78e-008	2
-3.76e-008	3
-3.74e-008	3
-3.72e-008	3
-3.7e-008	1
-3.68e-008	5
-3.66e-008	2
-3.64e-008	7
-3.62e-008	5
-3.6e-008	1
-3.58e-008	3
-3.56e-008	5
-3.54e-008	7
-3.52e-008	4
-3.5e-008	2
-3.48e-008	3
-3.46e-008	4
-3.44e-008	3
-3.42e-008	5
-3.4e-008	3
-3.38e-008	3
-3.36e-008	5
-3.34e-008	7
-3.32e-008	9
-3.3e-008	9
-3.28e-008	3
-3.26e-008	7
-3.24e-008	6
-3.22e-008	1
-3.2e-008	1
-3.18e-008	4
-3.16e-008	3
-3.14e-008	7
-3.12e-008	5
-3.1e-008	4
-3.08e-008	4
-3.06e-008	3
-3.04e-008	5
-3.02e-008	7
-3e-008	11
-2.98e-008	5
-2.96e-008	7
-2.94e-008	4
-2.92e-008	15
-2.9e-008	10
-2.88e-008	13
-2.86e-008	16
-2.84e-008	14
-2.82e-008	8
-2.8e-008	16
-2.78e-008	16
-2.76e-008	7
-2.74e-008	10
-2.72e-008	16
-2.7e-008	11
-2.68e-008	24
-2.66e-008	23
-2.64e-008	18
-2.62e-008	26
-2.6e-008	23
-2.58e-008	28
-2.56e-008	34
-2.54e-008	52
-2.52e-008	38
-2.5e-008	46
-2.48e-008	56
-2.46e-008	57
-2.44e-008	71
-2.42e-008	71
-2.4e-008	82
-2.38e-008	91
-2.36e-008	89
-2.34e-008	105
-2.32e-008	125
-2.3e-008	108
-2.28e-008	98
-2.26e-008	123
-2.24e-008	119
-2.22e-008	152
-2.2e-008	145
-2.18e-008	154
-2.16e-008	126
-2.14e-008	115
-2.12e-008	115
-2.1e-008	125
-2.08e-008	105
-2.06e-008	116
-2.04e-008	106
-2.02e-008	99
-2e-008	92
-1.98e-008	88
-1.96e-008	87
-1.94e-008	82
-1.92e-008	62
-1.9e-008	70
-1.88e-008	74
-1.86e-008	39
-1.84e-008	49
-1.82e-008	48
-1.8e-008	38
-1.78e-008	34
-1.76e-008	23
-1.74e-008	36
-1.72e-008	28
-1.7e-008	18
-1.68e-008	23
-1.66e-008	22
-1.64e-008	23
-1.62e-008	20
-1.6e-008	14
-1.58e-008	13
-1.56e-008	14
-1.54e-008	8
-1.52e-008	12
-1.5e-008	16
-1.48e-008	17
-1.46e-008	23
-1.44e-008	15
-1.42e-008	11
-1.4e-008	18
-1.38e-008	11
-1.36e-008	11
-1.34e-008	16
-1.32e-008	15
-1.3e-008	16
-1.28e-008	16
-1.26e-008	13
-1.24e-008	16
-1.22e-008	16
-1.2e-008	24
-1.18e-008	14
-1.16e-008	12
-1.14e-008	17
-1.12e-008	15
-1.1e-008	26
-1.08e-008	20
-1.06e-008	15
-1.04e-008	16
-1.02e-008	12
-1e-008	12
-9.8e-009	21
-9.6e-009	16
-9.4e-009	17
-9.2e-009	14
-9e-009	14
-8.8e-009	14
-8.6e-009	12
-8.4e-009	19
-8.2e-009	17
-8e-009	13
-7.8e-009	6
-7.6e-009	10
-7.4e-009	25
-7.2e-009	17
-7e-009	15
-6.8e-009	11
-6.6e-009	10
-6.4e-009	13
-6.2e-009	7
-6e-009	10
-5.8e-009	15
-5.6e-009	12
-5.4e-009	12
-5.2e-009	8
-5e-009	8
-4.8e-009	9
-4.6e-009	7
-4.4e-009	9
-4.2e-009	15
-4e-009	14
-3.8e-009	12
-3.6e-009	5
-3.4e-009	9
-3.2e-009	11
-3e-009	7
-2.8e-009	11
-2.6e-009	115
-2.4e-009	1082
-2.2e-009	1732
-2e-009	942
-1.8e-009	61
-1.6e-009	0
-1.4e-009	0
-1.2e-009	0
-1e-009	0
-8e-010	0
-6e-010	0
-4e-010	0
-2e-010	0
3.802e-022	0
2e-010	0
4e-010	0
6e-010	0
8e-010	0
1e-009	0
1.2e-009	0
1.4e-009	0
1.6e-009	0
1.8e-009	0
2e-009	0
2.2e-009	0
2.4e-009	0
2.6e-009	0
2.8e-009	0
3e-009	0
3.2e-009	0
3.4e-009	0
3.6e-009	0
3.8e-009	0
4e-009	0
4.2e-009	0
4.4e-009	0
4.6e-009	0
4.8e-009	0
5e-009	0
5.2e-009	0
5.4e-009	0
5.6e-009	0
5.8e-009	0
6e-009	0
6.2e-009	0
6.4e-009	0
6.6e-009	0
6.8e-009	0
7e-009	0
7.2e-009	0
7.4e-009	0
7.6e-009	0
