-1.464e-007	0
-1.46e-007	0
-1.456e-007	1
-1.452e-007	0
-1.448e-007	0
-1.444e-007	0
-1.44e-007	0
-1.436e-007	0
-1.432e-007	0
-1.428e-007	0
-1.424e-007	0
-1.42e-007	0
-1.416e-007	0
-1.412e-007	0
-1.408e-007	1
-1.404e-007	0
-1.4e-007	0
-1.396e-007	0
-1.392e-007	0
-1.388e-007	0
-1.384e-007	0
-1.38e-007	0
-1.376e-007	0
-1.372e-007	0
-1.368e-007	0
-1.364e-007	0
-1.36e-007	0
-1.356e-007	0
-1.352e-007	0
-1.348e-007	0
-1.344e-007	0
-1.34e-007	0
-1.336e-007	0
-1.332e-007	0
-1.328e-007	0
-1.324e-007	0
-1.32e-007	0
-1.316e-007	0
-1.312e-007	0
-1.308e-007	0
-1.304e-007	0
-1.3e-007	0
-1.296e-007	0
-1.292e-007	0
-1.288e-007	0
-1.284e-007	0
-1.28e-007	0
-1.276e-007	0
-1.272e-007	0
-1.268e-007	0
-1.264e-007	0
-1.26e-007	0
-1.256e-007	0
-1.252e-007	1
-1.248e-007	0
-1.244e-007	0
-1.24e-007	0
-1.236e-007	0
-1.232e-007	0
-1.228e-007	0
-1.224e-007	0
-1.22e-007	0
-1.216e-007	0
-1.212e-007	0
-1.208e-007	0
-1.204e-007	0
-1.2e-007	0
-1.196e-007	0
-1.192e-007	1
-1.188e-007	0
-1.184e-007	0
-1.18e-007	0
-1.176e-007	0
-1.172e-007	0
-1.168e-007	0
-1.164e-007	2
-1.16e-007	0
-1.156e-007	0
-1.152e-007	0
-1.148e-007	0
-1.144e-007	0
-1.14e-007	0
-1.136e-007	0
-1.132e-007	0
-1.128e-007	0
-1.124e-007	0
-1.12e-007	1
-1.116e-007	0
-1.112e-007	1
-1.108e-007	0
-1.104e-007	0
-1.1e-007	2
-1.096e-007	0
-1.092e-007	0
-1.088e-007	1
-1.084e-007	0
-1.08e-007	0
-1.076e-007	2
-1.072e-007	1
-1.068e-007	0
-1.064e-007	1
-1.06e-007	0
-1.056e-007	0
-1.052e-007	0
-1.048e-007	0
-1.044e-007	0
-1.04e-007	0
-1.036e-007	0
-1.032e-007	0
-1.028e-007	1
-1.024e-007	2
-1.02e-007	1
-1.016e-007	0
-1.012e-007	1
-1.008e-007	0
-1.004e-007	0
-1e-007	0
-9.96e-008	1
-9.92e-008	2
-9.88e-008	3
-9.84e-008	1
-9.8e-008	0
-9.76e-008	0
-9.72e-008	2
-9.68e-008	1
-9.64e-008	5
-9.6e-008	4
-9.56e-008	3
-9.52e-008	3
-9.48e-008	10
-9.44e-008	4
-9.4e-008	12
-9.36e-008	14
-9.32e-008	12
-9.28e-008	8
-9.24e-008	10
-9.2e-008	15
-9.16e-008	12
-9.12e-008	18
-9.08e-008	24
-9.04e-008	13
-9e-008	16
-8.96e-008	22
-8.92e-008	13
-8.88e-008	15
-8.84e-008	16
-8.8e-008	15
-8.76e-008	18
-8.72e-008	19
-8.68e-008	18
-8.64e-008	14
-8.6e-008	14
-8.56e-008	20
-8.52e-008	21
-8.48e-008	13
-8.44e-008	12
-8.4e-008	13
-8.36e-008	17
-8.32e-008	16
-8.28e-008	14
-8.24e-008	12
-8.2e-008	6
-8.16e-008	15
-8.12e-008	8
-8.08e-008	15
-8.04e-008	6
-8e-008	11
-7.96e-008	11
-7.92e-008	10
-7.88e-008	4
-7.84e-008	13
-7.8e-008	16
-7.76e-008	7
-7.72e-008	16
-7.68e-008	10
-7.64e-008	8
-7.6e-008	9
-7.56e-008	13
-7.52e-008	9
-7.48e-008	14
-7.44e-008	10
-7.4e-008	8
-7.36e-008	14
-7.32e-008	18
-7.28e-008	18
-7.24e-008	15
-7.2e-008	8
-7.16e-008	26
-7.12e-008	15
-7.08e-008	12
-7.04e-008	10
-7e-008	8
-6.96e-008	9
-6.92e-008	4
-6.88e-008	6
-6.84e-008	6
-6.8e-008	10
-6.76e-008	8
-6.72e-008	3
-6.68e-008	6
-6.64e-008	9
-6.6e-008	2
-6.56e-008	6
-6.52e-008	7
-6.48e-008	9
-6.44e-008	6
-6.4e-008	8
-6.36e-008	8
-6.32e-008	6
-6.28e-008	6
-6.24e-008	5
-6.2e-008	3
-6.16e-008	2
-6.12e-008	7
-6.08e-008	6
-6.04e-008	3
-6e-008	5
-5.96e-008	6
-5.92e-008	8
-5.88e-008	8
-5.84e-008	6
-5.8e-008	9
-5.76e-008	3
-5.72e-008	6
-5.68e-008	7
-5.64e-008	6
-5.6e-008	5
-5.56e-008	4
-5.52e-008	4
-5.48e-008	5
-5.44e-008	7
-5.4e-008	3
-5.36e-008	8
-5.32e-008	8
-5.28e-008	6
-5.24e-008	5
-5.2e-008	2
-5.16e-008	9
-5.12e-008	12
-5.08e-008	4
-5.04e-008	6
-5e-008	8
-4.96e-008	14
-4.92e-008	9
-4.88e-008	10
-4.84e-008	8
-4.8e-008	8
-4.76e-008	8
-4.72e-008	4
-4.68e-008	10
-4.64e-008	14
-4.6e-008	14
-4.56e-008	15
-4.52e-008	20
-4.48e-008	11
-4.44e-008	9
-4.4e-008	11
-4.36e-008	10
-4.32e-008	13
-4.28e-008	21
-4.24e-008	23
-4.2e-008	28
-4.16e-008	35
-4.12e-008	47
-4.08e-008	47
-4.04e-008	54
-4e-008	63
-3.96e-008	81
-3.92e-008	82
-3.88e-008	84
-3.84e-008	101
-3.8e-008	107
-3.76e-008	128
-3.72e-008	117
-3.68e-008	124
-3.64e-008	141
-3.6e-008	158
-3.56e-008	173
-3.52e-008	167
-3.48e-008	181
-3.44e-008	181
-3.4e-008	170
-3.36e-008	167
-3.32e-008	137
-3.28e-008	141
-3.24e-008	148
-3.2e-008	120
-3.16e-008	131
-3.12e-008	128
-3.08e-008	79
-3.04e-008	92
-3e-008	76
-2.96e-008	69
-2.92e-008	60
-2.88e-008	53
-2.84e-008	51
-2.8e-008	37
-2.76e-008	25
-2.72e-008	32
-2.68e-008	29
-2.64e-008	32
-2.6e-008	24
-2.56e-008	11
-2.52e-008	14
-2.48e-008	11
-2.44e-008	18
-2.4e-008	21
-2.36e-008	23
-2.32e-008	22
-2.28e-008	13
-2.24e-008	16
-2.2e-008	19
-2.16e-008	15
-2.12e-008	17
-2.08e-008	16
-2.04e-008	18
-2e-008	14
-1.96e-008	17
-1.92e-008	21
-1.88e-008	18
-1.84e-008	15
-1.8e-008	22
-1.76e-008	20
-1.72e-008	22
-1.68e-008	26
-1.64e-008	16
-1.6e-008	24
-1.56e-008	16
-1.52e-008	22
-1.48e-008	17
-1.44e-008	9
-1.4e-008	16
-1.36e-008	15
-1.32e-008	20
-1.28e-008	19
-1.24e-008	22
-1.2e-008	20
-1.16e-008	12
-1.12e-008	24
-1.08e-008	11
-1.04e-008	12
-1e-008	16
-9.6e-009	13
-9.2e-009	9
-8.8e-009	17
-8.4e-009	18
-8e-009	12
-7.6e-009	18
-7.2e-009	11
-6.8e-009	13
-6.4e-009	14
-6e-009	10
-5.6e-009	12
-5.2e-009	6
-4.8e-009	15
-4.4e-009	14
-4e-009	8
-3.6e-009	15
-3.2e-009	19
-2.8e-009	462
-2.4e-009	3226
-2e-009	72
-1.6e-009	0
-1.2e-009	0
-8e-010	0
-4e-010	0
5.752e-022	0
4e-010	0
8e-010	0
1.2e-009	0
1.6e-009	0
2e-009	0
2.4e-009	0
2.8e-009	0
3.2e-009	0
3.6e-009	0
4e-009	0
4.4e-009	0
4.8e-009	0
5.2e-009	0
5.6e-009	0
6e-009	0
6.4e-009	0
6.8e-009	0
7.2e-009	0
7.6e-009	0
8e-009	0
8.4e-009	0
8.8e-009	0
9.2e-009	0
9.6e-009	0
1e-008	0
1.04e-008	0
1.08e-008	0
1.12e-008	0
1.16e-008	0
1.2e-008	0
1.24e-008	0
1.28e-008	0
1.32e-008	0
1.36e-008	0
1.4e-008	0
1.44e-008	0
1.48e-008	0
1.52e-008	0
1.56e-008	0
1.6e-008	0
1.64e-008	0
1.68e-008	0
1.72e-008	0
1.76e-008	0
1.8e-008	0
1.84e-008	0
1.88e-008	0
1.92e-008	0
1.96e-008	0
2e-008	0
2.04e-008	0
2.08e-008	0
2.12e-008	0
2.16e-008	0
2.2e-008	0
2.24e-008	0
2.28e-008	0
2.32e-008	0
2.36e-008	0
2.4e-008	0
2.44e-008	0
2.48e-008	0
2.52e-008	0
2.56e-008	0
2.6e-008	0
2.64e-008	0
2.68e-008	0
2.72e-008	0
2.76e-008	0
2.8e-008	0
2.84e-008	0
2.88e-008	0
2.92e-008	0
2.96e-008	0
3e-008	0
3.04e-008	0
3.08e-008	0
3.12e-008	0
3.16e-008	0
3.2e-008	0
3.24e-008	0
3.28e-008	0
3.32e-008	0
3.36e-008	0
3.4e-008	0
3.44e-008	0
3.48e-008	0
3.52e-008	0
3.56e-008	0
3.6e-008	0
3.64e-008	0
3.68e-008	0
3.72e-008	0
3.76e-008	0
3.8e-008	0
